A Agriculture
B Paint
C Pupil
D Range
E Enhance
F User
G Reason
H Dance
I Conductor
J Bounce
K Captivate
L Structure
M Shake
N Excess
O Crackpot
P Snap
Q Suggest
R Glory
S Cater
T Regard
U Economics
V Action
W Leash
X Foster
Y Generation
Z Gaffe
