.....
----------------------------------------------------------------------
Ran 5 tests in 0.001s

OK
Name               Stmts   Miss Branch BrPart  Cover   Missing
--------------------------------------------------------------
Diplomacy.py          73      5     50      4    91%   18, 72, 79, 87->81, 105-106
TestDiplomacy.py      30      0      2      0   100%
--------------------------------------------------------------
TOTAL                103      5     52      4    93%
