............
----------------------------------------------------------------------
Ran 12 tests in 0.001s

OK
Name               Stmts   Miss Branch BrPart  Cover   Missing
--------------------------------------------------------------
Diplomacy.py          70      0     42      0   100%
TestDiplomacy.py      65      0      0      0   100%
--------------------------------------------------------------
TOTAL                135      0     42      0   100%